Extract consensus DE candidates — extract_consensus_DE_candidates • PRONE
…
per_comparison
Logical indicating if the consensus should be calculated per comparison

    Value

data table with consensus DE candidates

    Examples

data(tuberculosis_TMT_de_res)
extract_consensus_DE_candidates(tuberculosis_TMT_de_res, ain = NULL,
                  comparisons = NULL, norm_thr = 0.8, per_comparison = TRUE)
#> # A tibble: 132 × 4
#> # Groups:   Protein.IDs [83]
#>    Protein.IDs                  Comparison Intersections Percentage
#>    <chr>                        <fct>              <int>      <dbl>
#>  1 A0A075B6I1                   TBL-HC                 5        100
#>  2 A0A075B6K4;P01715            TBL-HC                 5        100
#>  3 A0A075B6K4;P01715            Rx-TBL                 4         80
#>  4 A0A075B6K5;P80748;A0A075B6K2 TBL-HC                 5        100
#>  5 A0A075B6K5;P80748;A0A075B6K2 TBL-PTB                5        100
#>  6 A0A075B6K5;P80748;A0A075B6K2 Rx-TBL                 5        100
#>  7 A0A075B730;P58107            PTB-HC                 5        100
#>  8 A0A075B730;P58107            Rx-HC                  5        100
#>  9 A0A0A0MS08;P01857;A0A0A0MS07 Rx-HC                  5        100
#> 10 A0A0B4J1V6;A0A0B4J1V0        PTB-HC                 4         80
#> # ℹ 122 more rows
…
